<transformList>

  <!-- structuring for the compchem convention -->
  <transform process="createWrapperParameter" 
      xpath=".//cml:scalar[@dictRef='cc:hostName' or 
                           @dictRef='cc:jobname' or
                           @dictRef='cc:method' or
                           @dictRef='cc:basisSetLabel'
                           ]"/>
  <transform process="createWrapperMetadata" 
      xpath=".//cml:scalar[@dictRef='cc:programVersion' or
                           @dictRef='cc:runDate' or
                           @dictRef='cc:title']"/>
  <transform process="createWrapperProperty" 
      xpath=".//*[@dictRef='cc:electronicstate' or
                           @dictRef='cc:Energy_total' or
                           @dictRef='cc:dipole' or
                           @dictRef='cc:dipolederiv' or
                           @dictRef='cc:polarizability' or
                           @dictRef='cc:pointgroup' or
                           @dictRef='cc:rmsd' or
                           @dictRef='cc:rmsf']"/>
  

  <!--  wrap scalars and arrays -->
  <transform process="addChild" xpath="." elementName="cml:parameterList"/>
  <transform process="move" xpath=".//cml:parameter" to="./cml:parameterList"/>
  <transform process="addChild" xpath="." elementName="cml:propertyList"/>
  <transform process="move" xpath=".//cml:property" to="./cml:propertyList"/>
  <transform process="addChild" xpath="." elementName="cml:metadataList"/>
  <transform process="move" xpath=".//cml:metadata" to="./cml:metadataList"/>

  <!-- manage conventions -->  
  <transform process="addAttribute" xpath="./cml:molecule" name="convention" value="convention:molecular"/>
  <transform process="addAttribute" xpath="." name="convention" value="convention:compchem"/>
  <transform process="addNamespace" xpath="." name="convention" value="http://www.xml-cml.org/convention/"/>
  
  <!--  finalization -->  
  <transform process="addDictRef" xpath="." value="cc:finalization"/>
  <transform process="addNamespace" xpath="." name="compchem" value="http://www.xml-cml.org/dictionary/compchem/"/>

  <!--  create other parts of cmlcomp -->
  <!--  job -->
  <transform process="createWrapper" elementName="cml:module" xpath="." id="job"/>
  <transform process="createWrapper" elementName="cml:module" xpath="/*" id="jobList"/>
  <!--  initialization -->
  <transform process="addChild" elementName="cml:module" xpath="//cml:module[@id='job']" id="initialization"/>
  <transform process="move" xpath=".//cml:parameterList" to="//cml:module[@id='initialization']"/>
  <transform process="addDictRef" xpath="//cml:module[@id='initialization']" value="cc:initialization"/>
  <!--  environment -->
  <transform process="addChild" elementName="cml:module" xpath="//cml:module[@id='job']" id="environment"/>
  <transform process="move" xpath=".//cml:metadataList" to="//cml:module[@id='environment']"/>
  <transform process="addDictRef" xpath="//cml:module[@id='environment']" value="cc:environment"/>
  <!--  calculation -->
  <transform process="addChild" elementName="cml:module" xpath="//cml:module[@id='job']" id="calculation"/>
  <transform process="addDictRef" xpath="//cml:module[@id='calculation']" value="cc:calculation"/>
  <transform process="move" xpath="//cml:module[@dictRef='cc:finalization']" to="//cml:module[@id='job']"/>
  <!--  add namespaces -->  
  <transform process="addNamespace" xpath="/*" name="cc" value="http://www.xml-cml.org/dictionary/compchem/"/>
  <transform process="addNamespace" xpath="/*" name="g" value="http://www.xml-cml.org/dictionary/gaussian/"/>
  <transform process="addNamespace" xpath="/*" name="x" value="http://www.xml-cml.org/dictionary/cmlx/"/>
  <transform process="addNamespace" xpath="/*" name="si" value="http://www.xml-cml.org/unit/si/"/>
  <transform process="addNamespace" xpath="/*" name="nonsi" value="http://www.xml-cml.org/unit/nonsi/"/>

  
</transformList>    
 